…
Using `anti-join`:

``` r
anti_join(bakers_df, bakes_df)
```

    ## Joining with `by = join_by(series, baker)`

    ## # A tibble: 27 × 6
    ##    series baker  last_name  baker_age baker_occupation                  hometown
    ##     <dbl> <chr>  <chr>          <dbl> <chr>                             <chr>   
    ##  1      2 Jo     Wheatley          41 Housewife                         Ongar, …
    ##  2      6 Ugn    Bubnaityte        32 PA and administrator              Woodfor…
    ##  3      9 Antony Amourdoux         30 Banker                            London  
    ##  4      9 Briony Williams          33 Full-time parent                  Bristol 
    ##  5      9 Dan    Beasley           36 Full-time parent                  London  
    ##  6      9 Imelda McCarron          33 Countryside recreation officer    County …
    ##  7      9 Jon    Jenkins           47 Blood courier                     Newport 
    ##  8      9 Karen  Wright            60 In-store sampling assistant       Wakefie…
    ##  9      9 Kim    Joy               27 Mental health specialist          Leeds   
    ## 10      9 Luke   Thompson          30 Civil servant/house and techno DJ Sheffie…
    ## # ℹ 17 more rows
…
